[
  {
    "id": "880addb6-3868-46f7-be13-a3b6683cd302",
    "peneliti_utama": "Petrus Mursanto",
    "anggota_peneliti": [],
    "lab": {
      "id": 3,
      "name": "IM",
      "deskripsi": ""
    },
    "pemberi_dana": {
      "id": 1,
      "nama": "DIKTI",
      "tipe_pendanaan": "Eksternal"
    },
    "output": [],
    "judul_penelitian": "Autonomous Quadcopter Swarm Robots for Military Reconnaissance and Intelligence Gathering",
    "tahun": 2012,
    "status_usulan": "Lanjutan"
  },
  {
    "id": "786b6684-c316-4642-b1c6-477ce9652388",
    "peneliti_utama": "Zainal A.Hasibuan",
    "anggota_peneliti": ["ACHMAD NIZAR HIDAYANTO", "Benyamin Kusumoputro"],
    "lab": {
      "id": 5,
      "name": "RSE",
      "deskripsi": ""
    },
    "pemberi_dana": {
      "id": 1,
      "nama": "DIKTI",
      "tipe_pendanaan": "Eksternal"
    },
    "output": [],
    "judul_penelitian": "Sistem Rekonstruksi Objek dan Penangkap Gerak Otomatis Terintegrasi Untuk Pembuatan Animasi 3D Yang Lebih Cepat dan Murah",
    "tahun": 2012,
    "status_usulan": "Baru"
  },
  {
    "id": "41476fe0-5733-4912-be4a-80e37949c4cf",
    "peneliti_utama": "Muhammad Mishbah",
    "anggota_peneliti": [],
    "lab": {
      "id": 4,
      "name": "DL2",
      "deskripsi": ""
    },
    "pemberi_dana": {
      "id": 1,
      "nama": "DIKTI",
      "tipe_pendanaan": "Eksternal"
    },
    "output": [],
    "judul_penelitian": "Development of Smart Ultrasonography (USG) for Telehealth Monitoring (KT)",
    "tahun": 2012,
    "status_usulan": "Lanjutan"
  },
  {
    "id": "3c6bda2f-6ae5-4d5c-a948-ce2c82b445b9",
    "peneliti_utama": "ACHMAD NIZAR HIDAYANTO",
    "anggota_peneliti": ["Benyamin Kusumoputro", "Aniaty Murni Arthymurthy"],
    "lab": {
      "id": 1,
      "name": "E-GOV",
      "deskripsi": ""
    },
    "pemberi_dana": {
      "id": 1,
      "nama": "DIKTI",
      "tipe_pendanaan": "Eksternal"
    },
    "output": [],
    "judul_penelitian": "Development Of Sleep Awakening Timing Controller For Occupational Safety Based On Computational Intilligent Algorithm",
    "tahun": 2011,
    "status_usulan": "Baru"
  },
  {
    "id": "06bf60ef-ab0f-44c8-9b5d-89e79b5aab11",
    "peneliti_utama": "Benyamin Kusumoputro",
    "anggota_peneliti": [],
    "lab": {
      "id": 2,
      "name": "CNAHPC",
      "deskripsi": ""
    },
    "pemberi_dana": {
      "id": 1,
      "nama": "DIKTI",
      "tipe_pendanaan": "Eksternal"
    },
    "output": [],
    "judul_penelitian": "INDONESIAN E-CULTURAL FRAMEWORK Pelestarian Warisan Budaya dan Sejarah Alam Berbasis Teknologi Informasi dan Komunikasi",
    "tahun": 2011,
    "status_usulan": "Lanjutan"
  }
]
