[
  { "name": "Hak Cipta Basis Data", "value": "Hak Cipta Basis Data" },
  { "name": "Hak Cipta Buku", "value": "Hak Cipta Buku" },
  { "name": "Hak Cipta Karya Tulis", "value": "Hak Cipta Karya Tulis" },
  { "name": "Hak Cipta Program Komputer", "value": "Hak Cipta Program Komputer" },
  { "name": "Paten", "value": "Paten" }
]