[
  {
    "id": "1",
    "link": "/produk/hki/",
    "title": "Content-based HKI 4",
    "type": "HKI",
    "description": "Lorem ipsum dolor sit amet, consectetur adipiscing elit, sed do eiusmod tempor incididunt ut labore et dolore magna aliqua. Ut enim ad minim veniam, quis nostrud exercitation ullamco laboris nisi ut aliquip ex ea commodo consequat."
  },
  {
    "id": "2",
    "link": "/produk/paten/",
    "title": "Project-based Paten 2",
    "type": "Paten",
    "description": "Duis aute irure dolor in reprehenderit in voluptate velit esse cillum dolore eu fugiat nulla pariatur."
  },
  {
    "id": "3",
    "link": "/",
    "title": "Jurnalku",
    "type": "Jurnal",
    "description": "Duis aute irure dolor in reprehenderit in voluptate velit esse cillum dolore eu fugiat nulla pariatur, sed do eiusmod tempor incididunt ut labore et dolore magna aliqua."
  }
]
