[
  {
    "uuid": "11",
    "nama_lengkap": "Testing 11",
    "jumlah_riset": "1",
    "jumlah_pengmas": "2",
    "jumlah_hibah": "3",
    "jumlah_hki": "3",
    "jumlah_paten": "3"
  },
  {
    "uuid": "12",
    "nama_lengkap": "Testing 12",
    "jumlah_riset": "1",
    "jumlah_pengmas": "2",
    "jumlah_hibah": "3",
    "jumlah_hki": "3",
    "jumlah_paten": "3"
  }
]
